2 Análisis Exploratorio de Datos – Inferencia Estadística
…
En otras ocasiones no se dispone de la descripción de las variables. En ese caso, ¡hay que hacer lo imposible por conseguirla! Si no conocemos el significado de una variable, difícilmente podremos interpretar los resultados asociados a ella.

Leemos los datos con R.

library(tidyverse)
bank = read.csv('https://raw.githubusercontent.com/rafiag/DTI2020/main/data/bank.csv')
dim(bank)

[1] 11162    17

bank=as.tibble(bank)
bank

# A tibble: 11,162 × 17
     age job       marital education default balance housing loan  contact   day
   <int> <chr>     <chr>   <chr>     <chr>     <int> <chr>   <chr> <chr>   <int>
 1    59 admin.    married secondary no         2343 yes     no    unknown     5
 2    56 admin.    married secondary no           45 no      no    unknown     5
 3    41 technici… married secondary no         1270 yes     no    unknown     5
 4    55 services  married secondary no         2476 yes     no    unknown     5
 5    54 admin.    married tertiary  no          184 no      no    unknown     5
 6    42 manageme… single  tertiary  no            0 yes     yes   unknown     5
 7    56 manageme… married tertiary  no          830 yes     yes   unknown     6
 8    60 retired   divorc… secondary no          545 yes     no    unknown     6
 9    37 technici… married secondary no            1 yes     no    unknown     6
10    28 services  single  secondary no         5090 yes     no    unknown     6
# ℹ 11,152 more rows
# ℹ 7 more variables: month <chr>, duration <int>, campaign <int>, pdays <int>,
#   previous <int>, poutcome <chr>, deposit <chr>
…
