1 Introducción – Inferencia Estadística
…
is.data.frame(datos)

[1] TRUE

Un tibble, o tbl_df, es una actualización del concepto del data frame. Los tibbles son data.frames perezosos. Esto le obliga a enfrentarse a los problemas antes, lo que normalmente conduce a un código más limpio y expresivo. Los tibbles también tienen un método print() mejorado que facilita su uso con grandes conjuntos de datos que contienen objetos complejos.

library(tidyverse)
as.tibble(iris)

# A tibble: 150 × 5
   Sepal.Length Sepal.Width Petal.Length Petal.Width Species
          <dbl>       <dbl>        <dbl>       <dbl> <fct>  
 1          5.1         3.5          1.4         0.2 setosa 
 2          4.9         3            1.4         0.2 setosa 
 3          4.7         3.2          1.3         0.2 setosa 
 4          4.6         3.1          1.5         0.2 setosa 
 5          5           3.6          1.4         0.2 setosa 
 6          5.4         3.9          1.7         0.4 setosa 
 7          4.6         3.4          1.4         0.3 setosa 
 8          5           3.4          1.5         0.2 setosa 
 9          4.4         2.9          1.4         0.2 setosa 
10          4.9         3.1          1.5         0.1 setosa 
# ℹ 140 more rows
…
En otras ocasiones no se dispone de la descripción de las variables. En ese caso, ¡hay que hacer lo imposible por conseguirla!

Leemos los datos con R.

library(tidyverse)
bank = read.csv('https://raw.githubusercontent.com/rafiag/DTI2020/main/data/bank.csv')
dim(bank)

[1] 11162    17

bank=as.tibble(bank)
bank

# A tibble: 11,162 × 17
     age job       marital education default balance housing loan  contact   day
   <int> <chr>     <chr>   <chr>     <chr>     <int> <chr>   <chr> <chr>   <int>
 1    59 admin.    married secondary no         2343 yes     no    unknown     5
 2    56 admin.    married secondary no           45 no      no    unknown     5
 3    41 technici… married secondary no         1270 yes     no    unknown     5
 4    55 services  married secondary no         2476 yes     no    unknown     5
 5    54 admin.    married tertiary  no          184 no      no    unknown     5
 6    42 manageme… single  tertiary  no            0 yes     yes   unknown     5
 7    56 manageme… married tertiary  no          830 yes     yes   unknown     6
 8    60 retired   divorc… secondary no          545 yes     no    unknown     6
 9    37 technici… married secondary no            1 yes     no    unknown     6
10    28 services  single  secondary no         5090 yes     no    unknown     6
# ℹ 11,152 more rows
# ℹ 7 more variables: month <chr>, duration <int>, campaign <int>, pdays <int>,
#   previous <int>, poutcome <chr>, deposit <chr>
…
